pseudo_random_generator/fp/xrun.log
xrun(64): 20.09-s010: (c) Copyright 1995-2021 Cadence Design Systems, Inc.
TOOL:	xrun(64)	20.09-s010: Started on Dec 01, 2024 at 19:32:44 PST
xrun
	+gui
	+access+rwc
	+xm64bit
	+define+FP_PRNG
	+xmstatus
	+xmtimescale+1ns/1ps
	+xmoveride_timescale
	+xmseq_udp_delay+20ps
	-sv
	./bits_to_real.sv
	./fp_prng.sv
	./prng_sha.sv
	./prng.sv
	./sha.sv
	./tb.sv
	tb.sv

   User defined plus("+") options:
	+xmoveride_timescale

Recompiling... reason: file './bits_to_real.sv' is newer than expected.
	expected: Sun Dec  1 19:04:19 2024
	actual:   Sun Dec  1 19:19:31 2024
file: ./fp_prng.sv
	module worklib.fp_prng:sv
		errors: 0, warnings: 0
file: ./tb.sv
	module worklib.prng_testbench:sv
		errors: 0, warnings: 0
file: tb.sv
module prng_testbench;
                    |
xmvlog: *W,RECOME (tb.sv,3|20): recompiling design unit worklib.prng_testbench:sv.
	First compiled from line 3 of ./tb.sv.
xmvlog: Memory Usage - Current physical: 15.8M, Current virtual: 61.9M
xmvlog: CPU Usage - 0.0s system + 0.0s user = 0.0s total (0.4s, 11.0% cpu)
xmelab: *N,INFSUD: -NOSPECIFY is automatically used with -SEQ_UDP_DELAY.
		Caching library 'worklib' ....... Done
	Elaborating the design hierarchy:
	Top level design units:
		prng_with_sha256
		lfsr
		prng_testbench
xmelab: *W,DSEMEL: This SystemVerilog design will be simulated as per IEEE 1800-2009 SystemVerilog simulation semantics. Use -disable_sem2009 option for turning off SV 2009 simulation semantics.
    .bit_rep(state),      // Input is the PRNG state (integer value)
                 |
xmelab: *W,CUVMPW (./fp_prng.sv,37|17): port sizes differ in port connection(16/32) for the instance(prng_testbench.prng_inst) .
	Building instance overlay tables: .................... Done
	Generating native compiled code:
		worklib.fp_prng:sv <0x484f1ecc>
			streams:   5, words:  1417
		worklib.prng_testbench:sv <0x1d152b60>
			streams:  11, words:  9166
	Building instance specific data structures.
	Loading native compiled code:     .................... Done
	Design hierarchy summary:
		                 Instances  Unique
		Modules:                 6       6
		Registers:              72      72
		Scalar wires:           21       -
		Vectored wires:         18       -
		Always blocks:           9       9
		Initial blocks:          6       6
		Cont. assignments:       4       7
		Pseudo assignments:     16      16
		Simulation timescale:  1ps
	Writing initial simulation snapshot: worklib.prng_with_sha256:sv
xmelab: Memory Usage - Final: 26.0M, Peak: 26.0M, Peak virtual: 129.9M
xmelab: CPU Usage - 0.1s system + 0.1s user = 0.2s total (0.9s, 17.5% cpu)
xmsim: *W,DSEM2009: This SystemVerilog design is simulated as per IEEE 1800-2009 SystemVerilog simulation semantics. Use -disable_sem2009 option for turning off SV 2009 simulation semantics.

-------------------------------------
Relinquished control to SimVision...
xcelium> 
xcelium> source /home/common/cadence/installs/XCELIUM2009/tools/xcelium/files/xmsimrc
xcelium> database -open waves -into waves.shm -default
Created default SHM database waves
xcelium> probe -create -shm prng_testbench.prng_inst.clk prng_testbench.prng_inst.fp_output prng_testbench.prng_inst.load_seed prng_testbench.prng_inst.prng_data prng_testbench.prng_inst.prng_done prng_testbench.prng_inst.prng_output_as_real prng_testbench.prng_inst.reset prng_testbench.prng_inst.seed_data prng_testbench.prng_inst.state
Created probe 1
xcelium> run
time=0, reset_n=0, clk=0, start=0, seed_data=0000000000000000, prng_output=00000000000000000000000000000000, done=0
time=5000, reset_n=0, clk=1, start=0, seed_data=0000000000000000, prng_output=00000000000000000000000000000000, done=0
time=10000, reset_n=1, clk=0, start=0, seed_data=0011010100100100, prng_output=00000000000000000000000000000000, done=0
time=15000, reset_n=1, clk=1, start=0, seed_data=0011010100100100, prng_output=00000000000000000000000000000000, done=0
time=20000, reset_n=1, clk=0, start=0, seed_data=0011010100100100, prng_output=00000000000000000000000000000000, done=0
time=25000, reset_n=1, clk=1, start=0, seed_data=0011010100100100, prng_output=00000000000000000110000001110010, done=1
time=30000, reset_n=1, clk=0, start=0, seed_data=0011010100100100, prng_output=00000000000000000110000001110010, done=1
time=35000, reset_n=1, clk=1, start=0, seed_data=0011010100100100, prng_output=00000000000000000110000001110010, done=0
time=40000, reset_n=1, clk=0, start=0, seed_data=0011010100100100, prng_output=00000000000000000110000001110010, done=0
time=45000, reset_n=1, clk=1, start=0, seed_data=0011010100100100, prng_output=00000000000000000110000001110010, done=0
time=50000, reset_n=1, clk=0, start=0, seed_data=0011010100100100, prng_output=00000000000000000110000001110010, done=0
time=55000, reset_n=1, clk=1, start=0, seed_data=0011010100100100, prng_output=00000000000000000110000001110010, done=0
time=60000, reset_n=1, clk=0, start=0, seed_data=0011010100100100, prng_output=00000000000000000110000001110010, done=0
time=65000, reset_n=1, clk=1, start=0, seed_data=0011010100100100, prng_output=00000000000000000110000001110010, done=0
time=70000, reset_n=1, clk=0, start=0, seed_data=0011010100100100, prng_output=00000000000000000110000001110010, done=0
time=75000, reset_n=1, clk=1, start=0, seed_data=0011010100100100, prng_output=00000000000000000110000001110010, done=0
time=80000, reset_n=1, clk=0, start=0, seed_data=0011010100100100, prng_output=00000000000000000110000001110010, done=0
time=85000, reset_n=1, clk=1, start=0, seed_data=0011010100100100, prng_output=00000000000000000110000001110010, done=0
time=90000, reset_n=1, clk=0, start=0, seed_data=0011010100100100, prng_output=00000000000000000110000001110010, done=0
time=95000, reset_n=1, clk=1, start=0, seed_data=0011010100100100, prng_output=00000000000000000110000001110010, done=0
time=100000, reset_n=1, clk=0, start=0, seed_data=0011010100100100, prng_output=00000000000000000110000001110010, done=0
time=105000, reset_n=1, clk=1, start=0, seed_data=0011010100100100, prng_output=00000000000000000110000001110010, done=0
time=110000, reset_n=1, clk=0, start=0, seed_data=0011010100100100, prng_output=00000000000000000110000001110010, done=0
time=115000, reset_n=1, clk=1, start=0, seed_data=0011010100100100, prng_output=00000000000000000110000001110010, done=0
time=120000, reset_n=1, clk=0, start=0, seed_data=0011010100100100, prng_output=00000000000000000110000001110010, done=0
time=125000, reset_n=1, clk=1, start=0, seed_data=0011010100100100, prng_output=00000000000000000110000001110010, done=0
time=130000, reset_n=1, clk=0, start=0, seed_data=0011010100100100, prng_output=00000000000000000110000001110010, done=0
time=135000, reset_n=1, clk=1, start=0, seed_data=0011010100100100, prng_output=00000000000000000110000001110010, done=0
time=140000, reset_n=1, clk=0, start=0, seed_data=0011010100100100, prng_output=00000000000000000110000001110010, done=0
time=145000, reset_n=1, clk=1, start=0, seed_data=0011010100100100, prng_output=00000000000000000110000001110010, done=0
time=150000, reset_n=1, clk=0, start=0, seed_data=0011010100100100, prng_output=00000000000000000110000001110010, done=0
time=155000, reset_n=1, clk=1, start=0, seed_data=0011010100100100, prng_output=00000000000000000110000001110010, done=0
time=160000, reset_n=1, clk=0, start=0, seed_data=0011010100100100, prng_output=00000000000000000110000001110010, done=0
time=165000, reset_n=1, clk=1, start=0, seed_data=0011010100100100, prng_output=00000000000000000110000001110010, done=0
time=170000, reset_n=1, clk=0, start=0, seed_data=0011010100100100, prng_output=00000000000000000110000001110010, done=0
time=175000, reset_n=1, clk=1, start=0, seed_data=0011010100100100, prng_output=00000000000000000110000001110010, done=0
time=180000, reset_n=1, clk=0, start=0, seed_data=0011010100100100, prng_output=00000000000000000110000001110010, done=0
time=185000, reset_n=1, clk=1, start=0, seed_data=0011010100100100, prng_output=00000000000000000110000001110010, done=0
time=190000, reset_n=1, clk=0, start=0, seed_data=0011010100100100, prng_output=00000000000000000110000001110010, done=0
time=195000, reset_n=1, clk=1, start=0, seed_data=0011010100100100, prng_output=00000000000000000110000001110010, done=0
time=200000, reset_n=1, clk=0, start=0, seed_data=0011010100100100, prng_output=00000000000000000110000001110010, done=0
time=205000, reset_n=1, clk=1, start=0, seed_data=0011010100100100, prng_output=00000000000000000110000001110010, done=0
time=210000, reset_n=1, clk=0, start=0, seed_data=0011010100100100, prng_output=00000000000000000110000001110010, done=0
time=215000, reset_n=1, clk=1, start=0, seed_data=0011010100100100, prng_output=00000000000000000110000001110010, done=0
time=220000, reset_n=1, clk=0, start=0, seed_data=0011010100100100, prng_output=00000000000000000110000001110010, done=0
time=225000, reset_n=1, clk=1, start=0, seed_data=0011010100100100, prng_output=00000000000000000110000001110010, done=0
time=230000, reset_n=1, clk=0, start=0, seed_data=0011010100100100, prng_output=00000000000000000110000001110010, done=0
time=235000, reset_n=1, clk=1, start=0, seed_data=0011010100100100, prng_output=00000000000000000110000001110010, done=0
time=240000, reset_n=1, clk=0, start=0, seed_data=0011010100100100, prng_output=00000000000000000110000001110010, done=0
time=245000, reset_n=1, clk=1, start=0, seed_data=0011010100100100, prng_output=00000000000000000110000001110010, done=0
time=250000, reset_n=1, clk=0, start=0, seed_data=0011010100100100, prng_output=00000000000000000110000001110010, done=0
time=255000, reset_n=1, clk=1, start=0, seed_data=0011010100100100, prng_output=00000000000000000110000001110010, done=0
time=260000, reset_n=1, clk=0, start=0, seed_data=0011010100100100, prng_output=00000000000000000110000001110010, done=0
time=265000, reset_n=1, clk=1, start=0, seed_data=0011010100100100, prng_output=00000000000000000110000001110010, done=0
time=270000, reset_n=1, clk=0, start=0, seed_data=0011010100100100, prng_output=00000000000000000110000001110010, done=0
time=275000, reset_n=1, clk=1, start=0, seed_data=0011010100100100, prng_output=00000000000000000110000001110010, done=0
time=280000, reset_n=1, clk=0, start=0, seed_data=0011010100100100, prng_output=00000000000000000110000001110010, done=0
time=285000, reset_n=1, clk=1, start=0, seed_data=0011010100100100, prng_output=00000000000000000110000001110010, done=0
time=290000, reset_n=1, clk=0, start=0, seed_data=0011010100100100, prng_output=00000000000000000110000001110010, done=0
time=295000, reset_n=1, clk=1, start=0, seed_data=0011010100100100, prng_output=00000000000000000110000001110010, done=0
time=300000, reset_n=1, clk=0, start=0, seed_data=0011010100100100, prng_output=00000000000000000110000001110010, done=0
time=305000, reset_n=1, clk=1, start=0, seed_data=0011010100100100, prng_output=00000000000000000110000001110010, done=0
time=310000, reset_n=1, clk=0, start=0, seed_data=0011010100100100, prng_output=00000000000000000110000001110010, done=0
time=315000, reset_n=1, clk=1, start=0, seed_data=0011010100100100, prng_output=00000000000000000110000001110010, done=0
time=320000, reset_n=1, clk=0, start=0, seed_data=0011010100100100, prng_output=00000000000000000110000001110010, done=0
time=325000, reset_n=1, clk=1, start=0, seed_data=0011010100100100, prng_output=00000000000000000110000001110010, done=0
time=330000, reset_n=1, clk=0, start=0, seed_data=0101111010000001, prng_output=00000000000000000110000001110010, done=0
time=335000, reset_n=1, clk=1, start=0, seed_data=0101111010000001, prng_output=00000000000000000110000001110010, done=0
time=340000, reset_n=1, clk=0, start=0, seed_data=0101111010000001, prng_output=00000000000000000110000001110010, done=0
time=345000, reset_n=1, clk=1, start=0, seed_data=0101111010000001, prng_output=00000000000000000010110011111100, done=1
time=350000, reset_n=1, clk=0, start=0, seed_data=0101111010000001, prng_output=00000000000000000010110011111100, done=1
time=355000, reset_n=1, clk=1, start=0, seed_data=0101111010000001, prng_output=00000000000000000010110011111100, done=0
time=360000, reset_n=1, clk=0, start=0, seed_data=0101111010000001, prng_output=00000000000000000010110011111100, done=0
time=365000, reset_n=1, clk=1, start=0, seed_data=0101111010000001, prng_output=00000000000000000010110011111100, done=0
time=370000, reset_n=1, clk=0, start=0, seed_data=0101111010000001, prng_output=00000000000000000010110011111100, done=0
time=375000, reset_n=1, clk=1, start=0, seed_data=0101111010000001, prng_output=00000000000000000010110011111100, done=0
time=380000, reset_n=1, clk=0, start=0, seed_data=0101111010000001, prng_output=00000000000000000010110011111100, done=0
time=385000, reset_n=1, clk=1, start=0, seed_data=0101111010000001, prng_output=00000000000000000010110011111100, done=0
time=390000, reset_n=1, clk=0, start=0, seed_data=0101111010000001, prng_output=00000000000000000010110011111100, done=0
time=395000, reset_n=1, clk=1, start=0, seed_data=0101111010000001, prng_output=00000000000000000010110011111100, done=0
time=400000, reset_n=1, clk=0, start=0, seed_data=0101111010000001, prng_output=00000000000000000010110011111100, done=0
time=405000, reset_n=1, clk=1, start=0, seed_data=0101111010000001, prng_output=00000000000000000010110011111100, done=0
time=410000, reset_n=1, clk=0, start=0, seed_data=0101111010000001, prng_output=00000000000000000010110011111100, done=0
time=415000, reset_n=1, clk=1, start=0, seed_data=0101111010000001, prng_output=00000000000000000010110011111100, done=0
time=420000, reset_n=1, clk=0, start=0, seed_data=0101111010000001, prng_output=00000000000000000010110011111100, done=0
time=425000, reset_n=1, clk=1, start=0, seed_data=0101111010000001, prng_output=00000000000000000010110011111100, done=0
time=430000, reset_n=1, clk=0, start=0, seed_data=0101111010000001, prng_output=00000000000000000010110011111100, done=0
time=435000, reset_n=1, clk=1, start=0, seed_data=0101111010000001, prng_output=00000000000000000010110011111100, done=0
time=440000, reset_n=1, clk=0, start=0, seed_data=0101111010000001, prng_output=00000000000000000010110011111100, done=0
time=445000, reset_n=1, clk=1, start=0, seed_data=0101111010000001, prng_output=00000000000000000010110011111100, done=0
time=450000, reset_n=1, clk=0, start=0, seed_data=0101111010000001, prng_output=00000000000000000010110011111100, done=0
time=455000, reset_n=1, clk=1, start=0, seed_data=0101111010000001, prng_output=00000000000000000010110011111100, done=0
time=460000, reset_n=1, clk=0, start=0, seed_data=0101111010000001, prng_output=00000000000000000010110011111100, done=0
time=465000, reset_n=1, clk=1, start=0, seed_data=0101111010000001, prng_output=00000000000000000010110011111100, done=0
time=470000, reset_n=1, clk=0, start=0, seed_data=0101111010000001, prng_output=00000000000000000010110011111100, done=0
time=475000, reset_n=1, clk=1, start=0, seed_data=0101111010000001, prng_output=00000000000000000010110011111100, done=0
time=480000, reset_n=1, clk=0, start=0, seed_data=0101111010000001, prng_output=00000000000000000010110011111100, done=0
time=485000, reset_n=1, clk=1, start=0, seed_data=0101111010000001, prng_output=00000000000000000010110011111100, done=0
time=490000, reset_n=1, clk=0, start=0, seed_data=0101111010000001, prng_output=00000000000000000010110011111100, done=0
time=495000, reset_n=1, clk=1, start=0, seed_data=0101111010000001, prng_output=00000000000000000010110011111100, done=0
time=500000, reset_n=1, clk=0, start=0, seed_data=0101111010000001, prng_output=00000000000000000010110011111100, done=0
time=505000, reset_n=1, clk=1, start=0, seed_data=0101111010000001, prng_output=00000000000000000010110011111100, done=0
time=510000, reset_n=1, clk=0, start=0, seed_data=0101111010000001, prng_output=00000000000000000010110011111100, done=0
time=515000, reset_n=1, clk=1, start=0, seed_data=0101111010000001, prng_output=00000000000000000010110011111100, done=0
time=520000, reset_n=1, clk=0, start=0, seed_data=0101111010000001, prng_output=00000000000000000010110011111100, done=0
time=525000, reset_n=1, clk=1, start=0, seed_data=0101111010000001, prng_output=00000000000000000010110011111100, done=0
time=530000, reset_n=1, clk=0, start=0, seed_data=0101111010000001, prng_output=00000000000000000010110011111100, done=0
time=535000, reset_n=1, clk=1, start=0, seed_data=0101111010000001, prng_output=00000000000000000010110011111100, done=0
time=540000, reset_n=1, clk=0, start=0, seed_data=0101111010000001, prng_output=00000000000000000010110011111100, done=0
time=545000, reset_n=1, clk=1, start=0, seed_data=0101111010000001, prng_output=00000000000000000010110011111100, done=0
time=550000, reset_n=1, clk=0, start=0, seed_data=0101111010000001, prng_output=00000000000000000010110011111100, done=0
time=555000, reset_n=1, clk=1, start=0, seed_data=0101111010000001, prng_output=00000000000000000010110011111100, done=0
time=560000, reset_n=1, clk=0, start=0, seed_data=0101111010000001, prng_output=00000000000000000010110011111100, done=0
time=565000, reset_n=1, clk=1, start=0, seed_data=0101111010000001, prng_output=00000000000000000010110011111100, done=0
time=570000, reset_n=1, clk=0, start=0, seed_data=0101111010000001, prng_output=00000000000000000010110011111100, done=0
time=575000, reset_n=1, clk=1, start=0, seed_data=0101111010000001, prng_output=00000000000000000010110011111100, done=0
time=580000, reset_n=1, clk=0, start=0, seed_data=0101111010000001, prng_output=00000000000000000010110011111100, done=0
time=585000, reset_n=1, clk=1, start=0, seed_data=0101111010000001, prng_output=00000000000000000010110011111100, done=0
time=590000, reset_n=1, clk=0, start=0, seed_data=0101111010000001, prng_output=00000000000000000010110011111100, done=0
time=595000, reset_n=1, clk=1, start=0, seed_data=0101111010000001, prng_output=00000000000000000010110011111100, done=0
time=600000, reset_n=1, clk=0, start=0, seed_data=0101111010000001, prng_output=00000000000000000010110011111100, done=0
time=605000, reset_n=1, clk=1, start=0, seed_data=0101111010000001, prng_output=00000000000000000010110011111100, done=0
time=610000, reset_n=1, clk=0, start=0, seed_data=0101111010000001, prng_output=00000000000000000010110011111100, done=0
time=615000, reset_n=1, clk=1, start=0, seed_data=0101111010000001, prng_output=00000000000000000010110011111100, done=0
time=620000, reset_n=1, clk=0, start=0, seed_data=0101111010000001, prng_output=00000000000000000010110011111100, done=0
time=625000, reset_n=1, clk=1, start=0, seed_data=0101111010000001, prng_output=00000000000000000010110011111100, done=0
time=630000, reset_n=1, clk=0, start=0, seed_data=0101111010000001, prng_output=00000000000000000010110011111100, done=0
time=635000, reset_n=1, clk=1, start=0, seed_data=0101111010000001, prng_output=00000000000000000010110011111100, done=0
time=640000, reset_n=1, clk=0, start=0, seed_data=0101111010000001, prng_output=00000000000000000010110011111100, done=0
time=645000, reset_n=1, clk=1, start=0, seed_data=0101111010000001, prng_output=00000000000000000010110011111100, done=0
time=650000, reset_n=1, clk=0, start=0, seed_data=1101011000001001, prng_output=00000000000000000010110011111100, done=0
time=655000, reset_n=1, clk=1, start=0, seed_data=1101011000001001, prng_output=00000000000000000010110011111100, done=0
time=660000, reset_n=1, clk=0, start=0, seed_data=1101011000001001, prng_output=00000000000000000010110011111100, done=0
time=665000, reset_n=1, clk=1, start=0, seed_data=1101011000001001, prng_output=00000000000000000100111110111110, done=1
time=670000, reset_n=1, clk=0, start=0, seed_data=1101011000001001, prng_output=00000000000000000100111110111110, done=1
time=675000, reset_n=1, clk=1, start=0, seed_data=1101011000001001, prng_output=00000000000000000100111110111110, done=0
time=680000, reset_n=1, clk=0, start=0, seed_data=1101011000001001, prng_output=00000000000000000100111110111110, done=0
time=685000, reset_n=1, clk=1, start=0, seed_data=1101011000001001, prng_output=00000000000000000100111110111110, done=0
time=690000, reset_n=1, clk=0, start=0, seed_data=1101011000001001, prng_output=00000000000000000100111110111110, done=0
time=695000, reset_n=1, clk=1, start=0, seed_data=1101011000001001, prng_output=00000000000000000100111110111110, done=0
time=700000, reset_n=1, clk=0, start=0, seed_data=1101011000001001, prng_output=00000000000000000100111110111110, done=0
time=705000, reset_n=1, clk=1, start=0, seed_data=1101011000001001, prng_output=00000000000000000100111110111110, done=0
time=710000, reset_n=1, clk=0, start=0, seed_data=1101011000001001, prng_output=00000000000000000100111110111110, done=0
time=715000, reset_n=1, clk=1, start=0, seed_data=1101011000001001, prng_output=00000000000000000100111110111110, done=0
time=720000, reset_n=1, clk=0, start=0, seed_data=1101011000001001, prng_output=00000000000000000100111110111110, done=0
time=725000, reset_n=1, clk=1, start=0, seed_data=1101011000001001, prng_output=00000000000000000100111110111110, done=0
time=730000, reset_n=1, clk=0, start=0, seed_data=1101011000001001, prng_output=00000000000000000100111110111110, done=0
time=735000, reset_n=1, clk=1, start=0, seed_data=1101011000001001, prng_output=00000000000000000100111110111110, done=0
time=740000, reset_n=1, clk=0, start=0, seed_data=1101011000001001, prng_output=00000000000000000100111110111110, done=0
time=745000, reset_n=1, clk=1, start=0, seed_data=1101011000001001, prng_output=00000000000000000100111110111110, done=0
time=750000, reset_n=1, clk=0, start=0, seed_data=1101011000001001, prng_output=00000000000000000100111110111110, done=0
time=755000, reset_n=1, clk=1, start=0, seed_data=1101011000001001, prng_output=00000000000000000100111110111110, done=0
time=760000, reset_n=1, clk=0, start=0, seed_data=1101011000001001, prng_output=00000000000000000100111110111110, done=0
time=765000, reset_n=1, clk=1, start=0, seed_data=1101011000001001, prng_output=00000000000000000100111110111110, done=0
time=770000, reset_n=1, clk=0, start=0, seed_data=1101011000001001, prng_output=00000000000000000100111110111110, done=0
time=775000, reset_n=1, clk=1, start=0, seed_data=1101011000001001, prng_output=00000000000000000100111110111110, done=0
time=780000, reset_n=1, clk=0, start=0, seed_data=1101011000001001, prng_output=00000000000000000100111110111110, done=0
time=785000, reset_n=1, clk=1, start=0, seed_data=1101011000001001, prng_output=00000000000000000100111110111110, done=0
time=790000, reset_n=1, clk=0, start=0, seed_data=1101011000001001, prng_output=00000000000000000100111110111110, done=0
time=795000, reset_n=1, clk=1, start=0, seed_data=1101011000001001, prng_output=00000000000000000100111110111110, done=0
time=800000, reset_n=1, clk=0, start=0, seed_data=1101011000001001, prng_output=00000000000000000100111110111110, done=0
time=805000, reset_n=1, clk=1, start=0, seed_data=1101011000001001, prng_output=00000000000000000100111110111110, done=0
time=810000, reset_n=1, clk=0, start=0, seed_data=1101011000001001, prng_output=00000000000000000100111110111110, done=0
time=815000, reset_n=1, clk=1, start=0, seed_data=1101011000001001, prng_output=00000000000000000100111110111110, done=0
time=820000, reset_n=1, clk=0, start=0, seed_data=1101011000001001, prng_output=00000000000000000100111110111110, done=0
time=825000, reset_n=1, clk=1, start=0, seed_data=1101011000001001, prng_output=00000000000000000100111110111110, done=0
time=830000, reset_n=1, clk=0, start=0, seed_data=1101011000001001, prng_output=00000000000000000100111110111110, done=0
time=835000, reset_n=1, clk=1, start=0, seed_data=1101011000001001, prng_output=00000000000000000100111110111110, done=0
time=840000, reset_n=1, clk=0, start=0, seed_data=1101011000001001, prng_output=00000000000000000100111110111110, done=0
time=845000, reset_n=1, clk=1, start=0, seed_data=1101011000001001, prng_output=00000000000000000100111110111110, done=0
time=850000, reset_n=1, clk=0, start=0, seed_data=1101011000001001, prng_output=00000000000000000100111110111110, done=0
time=855000, reset_n=1, clk=1, start=0, seed_data=1101011000001001, prng_output=00000000000000000100111110111110, done=0
time=860000, reset_n=1, clk=0, start=0, seed_data=1101011000001001, prng_output=00000000000000000100111110111110, done=0
time=865000, reset_n=1, clk=1, start=0, seed_data=1101011000001001, prng_output=00000000000000000100111110111110, done=0
time=870000, reset_n=1, clk=0, start=0, seed_data=1101011000001001, prng_output=00000000000000000100111110111110, done=0
time=875000, reset_n=1, clk=1, start=0, seed_data=1101011000001001, prng_output=00000000000000000100111110111110, done=0
time=880000, reset_n=1, clk=0, start=0, seed_data=1101011000001001, prng_output=00000000000000000100111110111110, done=0
time=885000, reset_n=1, clk=1, start=0, seed_data=1101011000001001, prng_output=00000000000000000100111110111110, done=0
time=890000, reset_n=1, clk=0, start=0, seed_data=1101011000001001, prng_output=00000000000000000100111110111110, done=0
time=895000, reset_n=1, clk=1, start=0, seed_data=1101011000001001, prng_output=00000000000000000100111110111110, done=0
time=900000, reset_n=1, clk=0, start=0, seed_data=1101011000001001, prng_output=00000000000000000100111110111110, done=0
time=905000, reset_n=1, clk=1, start=0, seed_data=1101011000001001, prng_output=00000000000000000100111110111110, done=0
time=910000, reset_n=1, clk=0, start=0, seed_data=1101011000001001, prng_output=00000000000000000100111110111110, done=0
time=915000, reset_n=1, clk=1, start=0, seed_data=1101011000001001, prng_output=00000000000000000100111110111110, done=0
time=920000, reset_n=1, clk=0, start=0, seed_data=1101011000001001, prng_output=00000000000000000100111110111110, done=0
time=925000, reset_n=1, clk=1, start=0, seed_data=1101011000001001, prng_output=00000000000000000100111110111110, done=0
time=930000, reset_n=1, clk=0, start=0, seed_data=1101011000001001, prng_output=00000000000000000100111110111110, done=0
time=935000, reset_n=1, clk=1, start=0, seed_data=1101011000001001, prng_output=00000000000000000100111110111110, done=0
time=940000, reset_n=1, clk=0, start=0, seed_data=1101011000001001, prng_output=00000000000000000100111110111110, done=0
time=945000, reset_n=1, clk=1, start=0, seed_data=1101011000001001, prng_output=00000000000000000100111110111110, done=0
time=950000, reset_n=1, clk=0, start=0, seed_data=1101011000001001, prng_output=00000000000000000100111110111110, done=0
time=955000, reset_n=1, clk=1, start=0, seed_data=1101011000001001, prng_output=00000000000000000100111110111110, done=0
time=960000, reset_n=1, clk=0, start=0, seed_data=1101011000001001, prng_output=00000000000000000100111110111110, done=0
time=965000, reset_n=1, clk=1, start=0, seed_data=1101011000001001, prng_output=00000000000000000100111110111110, done=0
time=970000, reset_n=1, clk=0, start=0, seed_data=0101011001100011, prng_output=00000000000000000100111110111110, done=0
time=975000, reset_n=1, clk=1, start=0, seed_data=0101011001100011, prng_output=00000000000000000100111110111110, done=0
time=980000, reset_n=1, clk=0, start=0, seed_data=0101011001100011, prng_output=00000000000000000100111110111110, done=0
time=985000, reset_n=1, clk=1, start=0, seed_data=0101011001100011, prng_output=00000000000000000011100001011000, done=1
time=990000, reset_n=1, clk=0, start=0, seed_data=0101011001100011, prng_output=00000000000000000011100001011000, done=1
time=995000, reset_n=1, clk=1, start=0, seed_data=0101011001100011, prng_output=00000000000000000011100001011000, done=0
time=1000000, reset_n=1, clk=0, start=0, seed_data=0101011001100011, prng_output=00000000000000000011100001011000, done=0
time=1005000, reset_n=1, clk=1, start=0, seed_data=0101011001100011, prng_output=00000000000000000011100001011000, done=0
time=1010000, reset_n=1, clk=0, start=0, seed_data=0101011001100011, prng_output=00000000000000000011100001011000, done=0
time=1015000, reset_n=1, clk=1, start=0, seed_data=0101011001100011, prng_output=00000000000000000011100001011000, done=0
time=1020000, reset_n=1, clk=0, start=0, seed_data=0101011001100011, prng_output=00000000000000000011100001011000, done=0
time=1025000, reset_n=1, clk=1, start=0, seed_data=0101011001100011, prng_output=00000000000000000011100001011000, done=0
time=1030000, reset_n=1, clk=0, start=0, seed_data=0101011001100011, prng_output=00000000000000000011100001011000, done=0
time=1035000, reset_n=1, clk=1, start=0, seed_data=0101011001100011, prng_output=00000000000000000011100001011000, done=0
time=1040000, reset_n=1, clk=0, start=0, seed_data=0101011001100011, prng_output=00000000000000000011100001011000, done=0
time=1045000, reset_n=1, clk=1, start=0, seed_data=0101011001100011, prng_output=00000000000000000011100001011000, done=0
time=1050000, reset_n=1, clk=0, start=0, seed_data=0101011001100011, prng_output=00000000000000000011100001011000, done=0
time=1055000, reset_n=1, clk=1, start=0, seed_data=0101011001100011, prng_output=00000000000000000011100001011000, done=0
time=1060000, reset_n=1, clk=0, start=0, seed_data=0101011001100011, prng_output=00000000000000000011100001011000, done=0
time=1065000, reset_n=1, clk=1, start=0, seed_data=0101011001100011, prng_output=00000000000000000011100001011000, done=0
time=1070000, reset_n=1, clk=0, start=0, seed_data=0101011001100011, prng_output=00000000000000000011100001011000, done=0
time=1075000, reset_n=1, clk=1, start=0, seed_data=0101011001100011, prng_output=00000000000000000011100001011000, done=0
time=1080000, reset_n=1, clk=0, start=0, seed_data=0101011001100011, prng_output=00000000000000000011100001011000, done=0
time=1085000, reset_n=1, clk=1, start=0, seed_data=0101011001100011, prng_output=00000000000000000011100001011000, done=0
time=1090000, reset_n=1, clk=0, start=0, seed_data=0101011001100011, prng_output=00000000000000000011100001011000, done=0
time=1095000, reset_n=1, clk=1, start=0, seed_data=0101011001100011, prng_output=00000000000000000011100001011000, done=0
time=1100000, reset_n=1, clk=0, start=0, seed_data=0101011001100011, prng_output=00000000000000000011100001011000, done=0
time=1105000, reset_n=1, clk=1, start=0, seed_data=0101011001100011, prng_output=00000000000000000011100001011000, done=0
time=1110000, reset_n=1, clk=0, start=0, seed_data=0101011001100011, prng_output=00000000000000000011100001011000, done=0
time=1115000, reset_n=1, clk=1, start=0, seed_data=0101011001100011, prng_output=00000000000000000011100001011000, done=0
time=1120000, reset_n=1, clk=0, start=0, seed_data=0101011001100011, prng_output=00000000000000000011100001011000, done=0
time=1125000, reset_n=1, clk=1, start=0, seed_data=0101011001100011, prng_output=00000000000000000011100001011000, done=0
time=1130000, reset_n=1, clk=0, start=0, seed_data=0101011001100011, prng_output=00000000000000000011100001011000, done=0
time=1135000, reset_n=1, clk=1, start=0, seed_data=0101011001100011, prng_output=00000000000000000011100001011000, done=0
time=1140000, reset_n=1, clk=0, start=0, seed_data=0101011001100011, prng_output=00000000000000000011100001011000, done=0
time=1145000, reset_n=1, clk=1, start=0, seed_data=0101011001100011, prng_output=00000000000000000011100001011000, done=0
time=1150000, reset_n=1, clk=0, start=0, seed_data=0101011001100011, prng_output=00000000000000000011100001011000, done=0
time=1155000, reset_n=1, clk=1, start=0, seed_data=0101011001100011, prng_output=00000000000000000011100001011000, done=0
time=1160000, reset_n=1, clk=0, start=0, seed_data=0101011001100011, prng_output=00000000000000000011100001011000, done=0
time=1165000, reset_n=1, clk=1, start=0, seed_data=0101011001100011, prng_output=00000000000000000011100001011000, done=0
time=1170000, reset_n=1, clk=0, start=0, seed_data=0101011001100011, prng_output=00000000000000000011100001011000, done=0
time=1175000, reset_n=1, clk=1, start=0, seed_data=0101011001100011, prng_output=00000000000000000011100001011000, done=0
time=1180000, reset_n=1, clk=0, start=0, seed_data=0101011001100011, prng_output=00000000000000000011100001011000, done=0
time=1185000, reset_n=1, clk=1, start=0, seed_data=0101011001100011, prng_output=00000000000000000011100001011000, done=0
time=1190000, reset_n=1, clk=0, start=0, seed_data=0101011001100011, prng_output=00000000000000000011100001011000, done=0
time=1195000, reset_n=1, clk=1, start=0, seed_data=0101011001100011, prng_output=00000000000000000011100001011000, done=0
time=1200000, reset_n=1, clk=0, start=0, seed_data=0101011001100011, prng_output=00000000000000000011100001011000, done=0
time=1205000, reset_n=1, clk=1, start=0, seed_data=0101011001100011, prng_output=00000000000000000011100001011000, done=0
time=1210000, reset_n=1, clk=0, start=0, seed_data=0101011001100011, prng_output=00000000000000000011100001011000, done=0
time=1215000, reset_n=1, clk=1, start=0, seed_data=0101011001100011, prng_output=00000000000000000011100001011000, done=0
time=1220000, reset_n=1, clk=0, start=0, seed_data=0101011001100011, prng_output=00000000000000000011100001011000, done=0
time=1225000, reset_n=1, clk=1, start=0, seed_data=0101011001100011, prng_output=00000000000000000011100001011000, done=0
