pseudo_random_generator/integer/lcg_prng_waveform.vcd
$date
	Wed Dec  4 10:55:49 2024
$end
$version
	Icarus Verilog
$end
$timescale
	1s
$end
$scope module tb_lcg_prng $end
$var wire 1 ! prng_done $end
$var wire 8 " prng_data [7:0] $end
$var reg 1 # clk $end
$var reg 32 $ cycle_count [31:0] $end
$var reg 8 % first_value [7:0] $end
$var reg 1 & load_seed $end
$var reg 1 ' period_detected $end
$var reg 1 ( reset $end
$var reg 8 ) seed_data [7:0] $end
$scope module uut $end
$var wire 1 # clk $end
$var wire 1 & load_seed $end
$var wire 1 ( reset $end
$var wire 8 * seed_data [7:0] $end
$var reg 8 + prng_data [7:0] $end
$var reg 1 ! prng_done $end
$var reg 8 , temp [7:0] $end
$upscope $end
$upscope $end
$enddefinitions $end
#0
$dumpvars
bx ,
bx +
b0 *
b0 )
1(
x'
0&
bx %
bx $
0#
bx "
x!
$end
#5
1!
1#
#10
b1 "
b1 +
0!
0#
0(
#15
1#
#20
0#
1(
#25
b11010101 "
b11010101 +
1!
b1000001 ,
1#
#30
0#
#35
b1101110 "
b1101110 +
b11011010 ,
1#
#40
0#
#45
b101110 "
b101110 +
b11101100 ,
1#
#50
0#
#55
b1110 "
b1110 +
b1 ,
1#
#60
0#
#65
b11000100 "
b11000100 +
b10111111 ,
1#
#70
0#
1&
b101010 )
b101010 *
#75
b101010 "
b101010 +
0!
1#
#80
0#
0'
b0 $
0&
#85
b11010000 "
b11010000 +
1!
1#
#90
0#
b11010000 %
#95
b11011101 "
b11011101 +
b1001000 ,
1#
#100
0#
b1 $
#105
b1000010 "
b1000010 +
b11001000 ,
1#
#110
0#
b10 $
#115
b1011010 "
b1011010 +
b111111 ,
1#
#120
0#
b11 $
#125
b11000000 "
b11000000 +
b10111000 ,
1#
#130
0#
b100 $
#135
b11011110 "
b11011110 +
b10110011 ,
1#
#140
0#
b101 $
#145
b10111101 "
b10111101 +
b1100011 ,
1#
#150
0#
b110 $
#155
b10000010 "
b10000010 +
b1110111 ,
1#
#160
0#
b111 $
#165
b11110111 "
b11110111 +
b10100000 ,
1#
#170
0#
b1000 $
#175
b11000011 "
b11000011 +
b10110001 ,
1#
#180
0#
b1001 $
#185
b111011 "
b111011 +
b11100011 ,
1#
#190
0#
b1010 $
#195
b1011101 "
b1011101 +
b11000011 ,
1#
#200
0#
b1011 $
#205
b10010011 "
b10010011 +
b10001100 ,
1#
#210
0#
b1100 $
#215
b11101101 "
b11101101 +
b10100010 ,
1#
#220
0#
b1101 $
#225
b1111000 "
b1111000 +
b100110 ,
1#
#230
0#
b1110 $
#235
b10001000 "
b10001000 +
b1110011 ,
1#
#240
0#
b1111 $
#245
b1100001 "
b1100001 +
b11011010 ,
1#
#250
0#
b10000 $
#255
b10111100 "
b10111100 +
b10011011 ,
1#
#260
0#
b10001 $
#265
b11000000 "
b11000000 +
b1000100 ,
1#
#270
0#
b10010 $
#275
b1000011 "
b1000011 +
b11001100 ,
1#
#280
0#
b10011 $
#285
b11101011 "
b11101011 +
b1010001 ,
1#
#290
0#
b10100 $
#295
b101110 "
b101110 +
b11100010 ,
1#
#300
0#
b10101 $
#305
b11111101 "
b11111101 +
b10100000 ,
1#
#310
0#
b10110 $
#315
b10100011 "
b10100011 +
b1100010 ,
1#
#320
0#
b10111 $
#325
b10111101 "
b10111101 +
b10011110 ,
1#
#330
0#
b11000 $
#335
b1011111 "
b1011111 +
b111001 ,
1#
#340
0#
b11001 $
#345
b10010010 "
b10010010 +
b10000011 ,
1#
#350
0#
b11010 $
#355
b11101 "
b11101 +
b11110010 ,
1#
#360
0#
b11011 $
#365
b110111 "
b110111 +
b11100011 ,
1#
#370
0#
b11100 $
#375
b10010011 "
b10010011 +
b1110000 ,
1#
#380
0#
b11101 $
#385
b1101011 "
b1101011 +
b11011011 ,
1#
#390
0#
b11110 $
#395
b100111 "
b100111 +
b10011 ,
1#
#400
0#
b11111 $
#405
b1111001 "
b1111001 +
b101100 ,
1#
#410
0#
b100000 $
#415
b1101010 "
b1101010 +
b11011010 ,
1#
#420
0#
b100001 $
#425
b11101101 "
b11101101 +
b1011110 ,
1#
#430
0#
b100010 $
#435
b1010001 "
b1010001 +
b110100 ,
1#
#440
0#
b100011 $
#445
b11010010 "
b11010010 +
b1000101 ,
1#
#450
0#
b100100 $
#455
b11101011 "
b11101011 +
b1011111 ,
1#
#460
0#
b100101 $
#465
b10110111 "
b10110111 +
b10011011 ,
1#
#470
0#
b100110 $
#475
b10010110 "
b10010110 +
b1111001 ,
1#
#480
0#
b100111 $
#485
b11011011 "
b11011011 +
b10111011 ,
1#
#490
0#
b101000 $
#495
b10110000 "
b10110000 +
b10011110 ,
1#
#500
0#
b101001 $
#505
b101111 "
b101111 +
b11101100 ,
1#
#510
0#
b101010 $
#515
b1110001 "
b1110001 +
b11011101 ,
1#
#520
0#
b101011 $
#525
b11011111 "
b11011111 +
b10110110 ,
1#
#530
0#
b101100 $
#535
b110110 "
b110110 +
b11101000 ,
1#
#540
0#
b101101 $
#545
b1010011 "
b1010011 +
b111000 ,
1#
#550
0#
b101110 $
#555
b11011101 "
b11011101 +
b1001001 ,
1#
#560
0#
b101111 $
#565
b11011010 "
b11011010 +
b10110000 ,
1#
#570
0#
b110000 $
#575
b1101100 "
b1101100 +
b101101 ,
1#
#580
0#
b110001 $
#585
b10010101 "
b10010101 +
b1111010 ,
1#
#590
0#
b110010 $
#595
b11011000 "
b11011000 +
b10110011 ,
1#
#600
0#
b110011 $
#605
b11001011 "
b11001011 +
b10110111 ,
1#
#610
0#
b110100 $
#615
b11110101 "
b11110101 +
b1011010 ,
1#
#620
0#
b110101 $
#625
b1111000 "
b1111000 +
b11011111 ,
1#
#630
0#
b110110 $
#635
b11000010 "
b11000010 +
b10110100 ,
1#
#640
0#
b110111 $
#645
b11111101 "
b11111101 +
b10101110 ,
1#
#650
0#
b111000 $
#655
b10001001 "
b10001001 +
b10001111 ,
1#
#660
0#
b111001 $
#665
b11010011 "
b11010011 +
b1000100 ,
1#
#670
0#
b111010 $
#675
b11110100 "
b11110100 +
b10100011 ,
1#
#680
0#
b111011 $
#685
b10011111 "
b10011111 +
b10000011 ,
1#
#690
0#
b111100 $
#695
b1001001 "
b1001001 +
b11001101 ,
1#
#700
0#
b111101 $
#705
b11011101 "
b11011101 +
b10111010 ,
1#
#710
0#
b111110 $
#715
b10011011 "
b10011011 +
b10001110 ,
1#
#720
0#
b111111 $
#725
b1101011 "
b1101011 +
b11010000 ,
1#
#730
0#
b1000000 $
#735
b10100100 "
b10100100 +
b1101101 ,
1#
#740
0#
b1000001 $
#745
b11011000 "
b11011000 +
b10110011 ,
1#
#750
0#
b1000010 $
#755
b1101110 "
b1101110 +
b11010110 ,
1#
#760
0#
b1000011 $
#765
b11111001 "
b11111001 +
b1011110 ,
1#
#770
0#
b1000100 $
#775
b10111 "
b10111 +
b11110110 ,
1#
#780
0#
b1000101 $
#785
b11000011 "
b11000011 +
b10110100 ,
1#
#790
0#
b1000110 $
#795
b11101001 "
b11101001 +
b1011001 ,
1#
#800
0#
b1000111 $
#805
b10010111 "
b10010111 +
b10000101 ,
1#
#810
0#
b1001000 $
#815
b111001 "
b111001 +
b11100 ,
1#
#820
0#
b1001001 $
#825
b11110100 "
b11110100 +
b10100010 ,
1#
#830
0#
b1001010 $
#835
b10100000 "
b10100000 +
b10011101 ,
1#
#840
0#
b1001011 $
#845
b1111010 "
b1111010 +
b11011100 ,
1#
#850
0#
b1001100 $
#855
b1111011 "
b1111011 +
b100101 ,
1#
#860
0#
b1001101 $
#865
b10011101 "
b10011101 +
b10001110 ,
1#
#870
0#
b1001110 $
#875
b11111 "
b11111 +
b11110000 ,
1#
#880
0#
b1001111 $
#885
b11011010 "
b11011010 +
b1000111 ,
1#
#890
0#
b1010000 $
#895
b11001001 "
b11001001 +
b1000110 ,
1#
#900
0#
b1010001 $
#905
b1101110 "
b1101110 +
b11010011 ,
1#
#910
0#
b1010010 $
#915
b101001 "
b101001 +
b10000 ,
1#
#920
0#
b1010011 $
#925
b11010100 "
b11010100 +
b10110111 ,
1#
#930
0#
b1010100 $
#935
b11110010 "
b11110010 +
b10101101 ,
1#
#940
0#
b1010101 $
#945
b11110001 "
b11110001 +
b1011001 ,
1#
#950
0#
b1010110 $
#955
b1011001 "
b1011001 +
b111101 ,
1#
#960
0#
b1010111 $
#965
b11011100 "
b11011100 +
b10111110 ,
1#
#970
0#
b1011000 $
#975
b10010110 "
b10010110 +
b10001011 ,
1#
#980
0#
b1011001 $
#985
b10000000 "
b10000000 +
b10001001 ,
1#
#990
0#
b1011010 $
#995
b10001101 "
b10001101 +
b1110101 ,
1#
#1000
0#
b1011011 $
#1005
b11000110 "
b11000110 +
b10110010 ,
1#
#1010
0#
b1011100 $
#1015
b1110110 "
b1110110 +
b11011101 ,
1#
#1020
0#
b1011101 $
#1025
b1011000 "
b1011000 +
b11000000 ,
1#
#1030
0#
b1011110 $
#1035
b1010011 "
b1010011 +
b11001011 ,
1#
#1040
0#
b1011111 $
#1045
b11100100 "
b11100100 +
b10100101 ,
1#
#1050
0#
b1100000 $
#1055
b11011101 "
b11011101 +
b1001101 ,
1#
#1060
0#
b1100001 $
#1065
b10000000 "
b10000000 +
b1110100 ,
1#
#1070
0#
b1100010 $
#1075
b10010101 "
b10010101 +
b1111010 ,
1#
#1080
0#
b1100011 $
#1085
b10101010 "
b10101010 +
b10010110 ,
1#
#1090
0#
b1100100 $
#1095
b11000111 "
b11000111 +
b10110011 ,
1#
#1100
0#
b1100101 $
#1105
b1010101 "
b1010101 +
b11000000 ,
1#
#1110
0#
b1100110 $
#1115
b1111001 "
b1111001 +
b11011111 ,
1#
#1120
0#
b1100111 $
#1125
b1011 "
b1011 +
b11111111 ,
1#
#1130
0#
b1101000 $
#1135
b11100011 "
b11100011 +
b10100100 ,
1#
#1140
0#
b1101001 $
#1145
b10000000 "
b10000000 +
b1111111 ,
1#
#1150
0#
b1101010 $
#1155
b11010011 "
b11010011 +
b1000101 ,
1#
#1160
0#
b1101011 $
#1165
b10 "
b10 +
b1110 ,
1#
#1170
0#
b1101100 $
#1175
b10101100 "
b10101100 +
b10010010 ,
1#
#1180
0#
b1101101 $
#1185
b1000000 "
b1000000 +
b11000000 ,
1#
#1190
0#
b1101110 $
#1195
b11011011 "
b11011011 +
b10111010 ,
1#
#1200
0#
b1101111 $
#1205
b1101 "
b1101 +
b11 ,
1#
#1210
0#
b1110000 $
#1215
b10101 "
b10101 +
b11111010 ,
1#
#1220
0#
b1110001 $
#1225
b10100001 "
b10100001 +
b1100000 ,
1#
#1230
0#
b1110010 $
#1235
b11011000 "
b11011000 +
b10110110 ,
1#
#1240
0#
b1110011 $
#1245
b1001 "
b1001 +
b1011 ,
1#
#1250
0#
b1110100 $
#1255
b111010 "
b111010 +
b11111 ,
1#
#1260
0#
b1110101 $
#1265
b10010 "
b10010 +
b11110001 ,
1#
#1270
0#
b1110110 $
#1275
b11011011 "
b11011011 +
b10110100 ,
1#
#1280
0#
b1110111 $
#1285
b10101 "
b10101 +
b1101 ,
1#
#1290
0#
b1111000 $
#1295
b1110010 "
b1110010 +
b100111 ,
1#
#1300
0#
b1111001 $
#1305
b101111 "
b101111 +
b11011 ,
1#
#1310
0#
b1111010 $
#1315
b11010100 "
b11010100 +
b10110110 ,
1#
#1320
0#
b1111011 $
#1325
b100100 "
b100100 +
b11111 ,
1#
#1330
0#
b1111100 $
#1335
b11000111 "
b11000111 +
b1001011 ,
1#
#1340
0#
b1111101 $
#1345
b1001100 "
b1001100 +
b111000 ,
1#
#1350
0#
b1111110 $
#1355
b11011010 "
b11011010 +
b10111110 ,
1#
#1360
0#
b1111111 $
#1365
b1010011 "
b1010011 +
b110110 ,
1#
#1370
0#
b10000000 $
#1375
b11110111 "
b11110111 +
b10100100 ,
1#
#1380
0#
b10000001 $
#1385
b10110100 "
b10110100 +
b1101010 ,
1#
#1390
0#
b10000010 $
#1395
b11000111 "
b11000111 +
b10110111 ,
1#
#1400
0#
b10000011 $
#1405
b10011000 "
b10011000 +
b1111010 ,
1#
#1410
0#
b10000100 $
#1415
b10001100 "
b10001100 +
b10001100 ,
1#
#1420
0#
b10000101 $
#1425
b100001 "
b100001 +
b11101110 ,
1#
#1430
0#
b10000110 $
#1435
b11111101 "
b11111101 +
b10100100 ,
1#
#1440
0#
b10000111 $
#1445
b1111000 "
b1111000 +
b11010100 ,
1#
#1450
0#
b10001000 $
#1455
b1000001 "
b1000001 +
b11001010 ,
1#
#1460
0#
b10001001 $
#1465
b1011100 "
b1011100 +
b110001 ,
1#
#1470
0#
b10001010 $
#1475
b10001101 "
b10001101 +
b10000011 ,
1#
#1480
0#
b10001011 $
#1485
b11000111 "
b11000111 +
b1000100 ,
1#
#1490
0#
b10001100 $
#1495
b10110010 "
b10110010 +
b1100001 ,
1#
#1500
0#
b10001101 $
#1505
b10001110 "
b10001110 +
b1110010 ,
1#
#1510
0#
b10001110 $
#1515
b1001011 "
b1001011 +
b11001011 ,
1#
#1520
0#
b10001111 $
#1525
b11111101 "
b11111101 +
b10100100 ,
1#
#1530
0#
b10010000 $
#1535
b110100 "
b110100 +
b11101011 ,
1#
#1540
0#
b10010001 $
#1545
b1000100 "
b1000100 +
b11001001 ,
1#
#1550
0#
b10010010 $
#1555
b10110100 "
b10110100 +
b1101110 ,
1#
#1560
0#
b10010011 $
#1565
b10001101 "
b10001101 +
b10000011 ,
1#
#1570
0#
b10010100 $
#1575
b1100100 "
b1100100 +
b101110 ,
1#
#1580
0#
b10010101 $
#1585
b10111011 "
b10111011 +
b1100110 ,
1#
#1590
0#
b10010110 $
#1595
b111110 "
b111110 +
b11101110 ,
1#
#1600
0#
b10010111 $
#1605
b1001010 "
b1001010 +
b11001011 ,
1#
#1610
0#
b10011000 $
#1615
b11111101 "
b11111101 +
b1010110 ,
1#
#1620
0#
b10011001 $
#1625
b100011 "
b100011 +
b11100110 ,
1#
#1630
0#
b10011010 $
#1635
b1111100 "
b1111100 +
b100001 ,
1#
#1640
0#
b10011011 $
#1645
b10110101 "
b10110101 +
b1101111 ,
1#
#1650
0#
b10011100 $
#1655
b10001010 "
b10001010 +
b10000011 ,
1#
#1660
0#
b10011101 $
#1665
b1000000 "
b1000000 +
b110010 ,
1#
#1670
0#
b10011110 $
#1675
b11010111 "
b11010111 +
b1000010 ,
1#
#1680
0#
b10011111 $
#1685
b111001 "
b111001 +
b11101111 ,
1#
#1690
0#
b10100000 $
#1695
b1001011 "
b1001011 +
b11001111 ,
1#
#1700
0#
b10100001 $
#1705
b10100111 "
b10100111 +
b1100000 ,
1#
#1710
0#
b10100010 $
#1715
b11001101 "
b11001101 +
b10111100 ,
1#
#1720
0#
b10100011 $
#1725
b1111011 "
b1111011 +
b100101 ,
1#
#1730
0#
b10100100 $
#1735
b10101011 "
b10101011 +
b1101110 ,
1#
#1740
0#
b10100101 $
#1745
b10011 "
b10011 +
b11110100 ,
1#
#1750
0#
b10100110 $
#1755
b11101000 "
b11101000 +
b10101011 ,
1#
#1760
0#
b10100111 $
#1765
b11001000 "
b11001000 +
b1000110 ,
1#
#1770
0#
b10101000 $
#1775
b11111 "
b11111 +
b11111110 ,
1#
#1780
0#
b10101001 $
#1785
b110111 "
b110111 +
b11010 ,
1#
#1790
0#
b10101010 $
#1795
b10100111 "
b10100111 +
b10011100 ,
1#
#1800
0#
b10101011 $
#1805
b11110010 "
b11110010 +
b10101100 ,
1#
#1810
0#
b10101100 $
#1815
b100100 "
b100100 +
b10000 ,
1#
#1820
0#
b10101101 $
#1825
b1101010 "
b1101010 +
b101100 ,
1#
#1830
0#
b10101110 $
#1835
b11000 "
b11000 +
b11110100 ,
1#
#1840
0#
b10101111 $
#1845
b10010000 "
b10010000 +
b10001011 ,
1#
#1850
0#
b10110000 $
#1855
b1011001 "
b1011001 +
b110110 ,
1#
#1860
0#
b10110001 $
#1865
b11110011 "
b11110011 +
b1011111 ,
1#
#1870
0#
b10110010 $
#1875
b110111 "
b110111 +
b10100 ,
1#
#1880
0#
b10110011 $
#1885
b1110110 "
b1110110 +
b11011000 ,
1#
#1890
0#
b10110100 $
#1895
b10011001 "
b10011001 +
b1110101 ,
1#
#1900
0#
b10110101 $
#1905
b10010000 "
b10010000 +
b10001010 ,
1#
#1910
0#
b10110110 $
#1915
b1100111 "
b1100111 +
b101100 ,
1#
#1920
0#
b10110111 $
#1925
b11000101 "
b11000101 +
b1001101 ,
1#
#1930
0#
b10111000 $
#1935
b1110011 "
b1110011 +
b11010101 ,
1#
#1940
0#
b10111001 $
#1945
b1110000 "
b1110000 +
b11011000 ,
1#
#1950
0#
b10111010 $
#1955
b11110010 "
b11110010 +
b1010100 ,
1#
#1960
0#
b10111011 $
#1965
b11100111 "
b11100111 +
b10100111 ,
1#
#1970
0#
b10111100 $
#1975
b11000000 "
b11000000 +
b1001010 ,
1#
#1980
0#
b10111101 $
#1985
b11000100 "
b11000100 +
b1001000 ,
1#
#1990
0#
b10111110 $
#1995
b10000101 "
b10000101 +
b10001011 ,
1#
#2000
0#
b10111111 $
#2005
b10100100 "
b10100100 +
b10010100 ,
1#
#2010
0#
b11000000 $
#2015
b11110000 "
b11110000 +
b10100000 ,
1#
#2020
0#
b11000001 $
#2025
b11111110 "
b11111110 +
b10100110 ,
1#
#2030
0#
b11000010 $
#2035
b1010111 "
b1010111 +
b11000111 ,
1#
#2040
0#
b11000011 $
#2045
b101 "
b101 +
b11110110 ,
1#
#2050
0#
b11000100 $
#2055
b10010010 "
b10010010 +
b10001000 ,
1#
#2060
0#
b11000101 $
#2065
b10000011 "
b10000011 +
b10000001 ,
1#
#2070
0#
b11000110 $
#2075
b10010110 "
b10010110 +
b1111100 ,
1#
#2080
0#
b11000111 $
#2085
b11001 "
b11001 +
b111 ,
1#
#2090
0#
b11001000 $
#2095
b1111111 "
b1111111 +
b11011011 ,
1#
#2100
0#
b11001001 $
#2105
b1000101 "
b1000101 +
b11000010 ,
1#
#2110
0#
b11001010 $
#2115
b1101000 "
b1101000 +
b11011101 ,
1#
#2120
0#
b11001011 $
#2125
b110111 "
b110111 +
b10101 ,
1#
#2130
0#
b11001100 $
#2135
b11001101 "
b11001101 +
b1000000 ,
1#
#2140
0#
b11001101 $
#2145
b10101111 "
b10101111 +
b1100111 ,
1#
#2150
0#
b11001110 $
#2155
b11111101 "
b11111101 +
b1011100 ,
1#
#2160
0#
b11001111 $
#2165
b1100001 "
b1100001 +
b101100 ,
1#
#2170
0#
b11010000 $
#2175
b11100010 "
b11100010 +
b10101011 ,
1#
#2180
0#
b11010001 $
#2185
b100 "
b100 +
b11111000 ,
1#
#2190
0#
b11010010 $
#2195
b10011001 "
b10011001 +
b10000011 ,
1#
#2200
0#
b11010011 $
#2205
b11110011 "
b11110011 +
b1010001 ,
1#
#2210
0#
b11010100 $
#2215
b10100110 "
b10100110 +
b10010011 ,
1#
#2220
0#
b11010101 $
#2225
b10100 "
b10100 +
b110 ,
1#
#2230
0#
b11010110 $
#2235
b1101011 "
b1101011 +
b11010101 ,
1#
#2240
0#
b11010111 $
#2245
b10011100 "
b10011100 +
b10001010 ,
1#
#2250
0#
b11011000 $
#2255
b10010 "
b10010 +
b11110101 ,
1#
#2260
0#
b11011001 $
#2265
b110001 "
b110001 +
b11110 ,
1#
#2270
0#
b11011010 $
#2275
b11100000 "
b11100000 +
b1011110 ,
1#
#2280
0#
b11011011 $
#2285
b1110000 "
b1110000 +
b11010010 ,
1#
#2290
0#
b11011100 $
#2295
b110001 "
b110001 +
b11011 ,
1#
#2300
0#
b11011101 $
#2305
b1110101 "
b1110101 +
b101001 ,
1#
#2310
0#
b11011110 $
#2315
b10110110 "
b10110110 +
b10010000 ,
1#
#2320
0#
b11011111 $
#2325
b11010110 "
b11010110 +
b1001000 ,
1#
#2330
0#
b11100000 $
#2335
b1101101 "
b1101101 +
b101001 ,
1#
#2340
0#
b11100001 $
#2345
b11001011 "
b11001011 +
b1001111 ,
1#
#2350
0#
b11100010 $
#2355
b111010 "
b111010 +
b11101101 ,
1#
#2360
0#
b11100011 $
#2365
b11011110 "
b11011110 +
b10111101 ,
1#
#2370
0#
b11100100 $
#2375
b11101010 "
b11101010 +
b1011011 ,
1#
#2380
0#
b11100101 $
#2385
b11101001 "
b11101001 +
b10101110 ,
1#
#2390
0#
b11100110 $
#2395
b1110100 "
b1110100 +
b100111 ,
1#
#2400
0#
b11100111 $
#2405
b11001110 "
b11001110 +
b10110001 ,
1#
#2410
0#
b11101000 $
#2415
b10101111 "
b10101111 +
b10011111 ,
1#
#2420
0#
b11101001 $
#2425
b10111110 "
b10111110 +
b10011101 ,
1#
#2430
0#
b11101010 $
#2435
b11000111 "
b11000111 +
b1001110 ,
1#
#2440
0#
b11101011 $
#2445
b11101100 "
b11101100 +
b10101001 ,
1#
#2450
0#
b11101100 $
#2455
b10000 "
b10000 +
b11111000 ,
1#
#2460
0#
b11101101 $
#2465
b111110 "
b111110 +
b11100001 ,
1#
#2470
0#
b11101110 $
#2475
b11101110 "
b11101110 +
b10100100 ,
1#
#2480
0#
b11101111 $
#2485
b10101001 "
b10101001 +
b10011010 ,
1#
#2490
0#
b11110000 $
#2495
b110101 "
b110101 +
b11000 ,
1#
#2500
0#
b11110001 $
#2505
b1110110 "
b1110110 +
b100001 ,
1#
#2510
0#
b11110010 $
#2515
b10101101 "
b10101101 +
b10011001 ,
1#
#2520
0#
b11110011 $
#2525
b1001 "
b1001 +
b11111101 ,
1#
#2530
0#
b11110100 $
#2535
b1100100 "
b1100100 +
b101111 ,
1#
#2540
0#
b11110101 $
#2545
b11010110 "
b11010110 +
b1001101 ,
1#
#2550
0#
b11110110 $
#2555
b1 "
b1 +
b11111011 ,
1#
#2560
0#
b11110111 $
#2565
b1101 "
b1101 +
b1101 ,
1#
#2570
0#
b11111000 $
#2575
b11111010 "
b11111010 +
b1010110 ,
1#
#2580
0#
b11111001 $
#2585
b11000110 "
b11000110 +
b10111101 ,
1#
#2590
0#
b11111010 $
#2595
b11100 "
b11100 +
b1 ,
1#
#2600
0#
b11111011 $
#2605
b101 "
b101 +
b1011 ,
1#
#2610
0#
b11111100 $
#2615
b10001010 "
b10001010 +
b10000111 ,
1#
#2620
0#
b11111101 $
#2625
b11101111 "
b11101111 +
b10100101 ,
1#
#2630
0#
b11111110 $
#2635
b100111 "
b100111 +
b10010 ,
1#
#2640
0#
b11111111 $
#2645
b10100 "
b10100 +
b111 ,
1#
#2650
0#
b100000000 $
#2655
b1010101 "
b1010101 +
b11001111 ,
1#
#2660
0#
b100000001 $
#2665
b10101010 "
b10101010 +
b10011000 ,
1#
#2670
0#
b100000010 $
#2675
b1010110 "
b1010110 +
b110100 ,
1#
#2680
0#
b100000011 $
#2685
b110111 "
b110111 +
b11110 ,
1#
#2690
0#
b100000100 $
#2695
b10001011 "
b10001011 +
b1111111 ,
1#
#2700
0#
b100000101 $
#2705
b111 "
b111 +
b11111111 ,
1#
#2710
0#
b100000110 $
#2715
b10010110 "
b10010110 +
b1111101 ,
1#
#2720
0#
b100000111 $
#2725
b1110100 "
b1110100 +
b101100 ,
1#
#2730
0#
b100001000 $
#2735
b1000000 "
b1000000 +
b11001110 ,
1#
#2740
0#
b100001001 $
#2745
b10 "
b10 +
b100 ,
1#
#2750
0#
b100001010 $
#2755
b1101111 "
b1101111 +
b11011101 ,
1#
#2760
0#
b100001011 $
#2765
b11010010 "
b11010010 +
b1001110 ,
1#
#2770
0#
b100001100 $
#2775
b10101101 "
b10101101 +
b1100000 ,
1#
#2780
0#
b100001101 $
#2785
b11111 "
b11111 +
b11 ,
1#
#2790
0#
b100001110 $
#2795
b11111101 "
b11111101 +
b1011000 ,
1#
#2800
0#
b100001111 $
#2805
b11001110 "
b11001110 +
b10111011 ,
1#
#2810
0#
b100010000 $
#2815
b10010 "
b10010 +
b11111011 ,
1#
#2820
0#
b100010001 $
#2825
b101001 "
b101001 +
b10000 ,
1#
#2830
0#
b100010010 $
#2835
b10000111 "
b10000111 +
b10000011 ,
1#
#2840
0#
b100010011 $
#2845
b11111110 "
b11111110 +
b10101001 ,
1#
#2850
0#
b100010100 $
#2855
b111101 "
b111101 +
b11011 ,
1#
#2860
0#
b100010101 $
#2865
b1011000 "
b1011000 +
b111101 ,
1#
#2870
0#
b100010110 $
#2875
b1001011 "
b1001011 +
b11000100 ,
1#
#2880
0#
b100010111 $
#2885
b10001000 "
b10001000 +
b10000001 ,
1#
#2890
0#
b100011000 $
#2895
b1101100 "
b1101100 +
b100011 ,
1#
#2900
0#
b100011001 $
#2905
b10001101 "
b10001101 +
b1110100 ,
1#
#2910
0#
b100011010 $
#2915
b10111111 "
b10111111 +
b1101110 ,
1#
#2920
0#
b100011011 $
#2925
b1000101 "
b1000101 +
b11001100 ,
1#
#2930
0#
b100011100 $
#2935
b11111001 "
b11111001 +
b1011010 ,
1#
#2940
0#
b100011101 $
#2945
b1010101 "
b1010101 +
b11001011 ,
1#
#2950
0#
b100011110 $
#2955
b111111 "
b111111 +
b11100000 ,
1#
#2960
0#
b100011111 $
#2965
b10100011 "
b10100011 +
b1100111 ,
1#
#2970
0#
b100100000 $
#2975
b10001000 "
b10001000 +
b10000101 ,
1#
#2980
0#
b100100001 $
#2985
b10010101 "
b10010101 +
b1111111 ,
1#
#2990
0#
b100100010 $
#2995
b1110001 "
b1110001 +
b100000 ,
1#
#3000
0#
b100100011 $
#3005
b100 "
b100 +
b11110010 ,
1#
#3010
0#
b100100100 $
#3015
b1011010 "
b1011010 +
b11001100 ,
1#
#3020
0#
b100100101 $
#3025
b1100001 "
b1100001 +
b11011111 ,
1#
#3030
0#
b100100110 $
#3035
b11010000 "
b11010000 +
b1001001 ,
1#
#3040
0#
1'
b100100111 $
